<?xml version="1.0" encoding="utf-8"?>
<!DOCTYPE eagle SYSTEM "eagle.dtd">
<eagle version="7.7.0">
<drawing>
<settings>
<setting alwaysvectorfont="no"/>
<setting verticaltext="up"/>
</settings>
<grid distance="0.1" unitdist="inch" unit="inch" style="lines" multiple="1" display="yes" altdistance="0.01" altunitdist="inch" altunit="inch"/>
<layers>
<layer number="1" name="Top" color="4" fill="1" visible="yes" active="yes"/>
<layer number="2" name="Route2" color="1" fill="3" visible="no" active="yes"/>
<layer number="3" name="Route3" color="4" fill="3" visible="no" active="yes"/>
<layer number="14" name="Route14" color="1" fill="6" visible="no" active="yes"/>
<layer number="15" name="Route15" color="4" fill="6" visible="no" active="yes"/>
<layer number="16" name="Bottom" color="1" fill="1" visible="yes" active="yes"/>
<layer number="17" name="Pads" color="2" fill="1" visible="yes" active="yes"/>
<layer number="18" name="Vias" color="2" fill="1" visible="yes" active="yes"/>
<layer number="19" name="Unrouted" color="6" fill="1" visible="yes" active="yes"/>
<layer number="20" name="Dimension" color="15" fill="1" visible="yes" active="yes"/>
<layer number="21" name="tPlace" color="7" fill="1" visible="yes" active="yes"/>
<layer number="22" name="bPlace" color="7" fill="1" visible="yes" active="yes"/>
<layer number="23" name="tOrigins" color="15" fill="1" visible="yes" active="yes"/>
<layer number="24" name="bOrigins" color="15" fill="1" visible="yes" active="yes"/>
<layer number="25" name="tNames" color="7" fill="1" visible="yes" active="yes"/>
<layer number="26" name="bNames" color="7" fill="1" visible="yes" active="yes"/>
<layer number="27" name="tValues" color="7" fill="1" visible="yes" active="yes"/>
<layer number="28" name="bValues" color="7" fill="1" visible="yes" active="yes"/>
<layer number="29" name="tStop" color="7" fill="3" visible="no" active="yes"/>
<layer number="30" name="bStop" color="7" fill="6" visible="no" active="yes"/>
<layer number="31" name="tCream" color="7" fill="4" visible="no" active="yes"/>
<layer number="32" name="bCream" color="7" fill="5" visible="no" active="yes"/>
<layer number="33" name="tFinish" color="6" fill="3" visible="no" active="yes"/>
<layer number="34" name="bFinish" color="6" fill="6" visible="no" active="yes"/>
<layer number="35" name="tGlue" color="7" fill="4" visible="no" active="yes"/>
<layer number="36" name="bGlue" color="7" fill="5" visible="no" active="yes"/>
<layer number="37" name="tTest" color="7" fill="1" visible="no" active="yes"/>
<layer number="38" name="bTest" color="7" fill="1" visible="no" active="yes"/>
<layer number="39" name="tKeepout" color="4" fill="11" visible="yes" active="yes"/>
<layer number="40" name="bKeepout" color="1" fill="11" visible="yes" active="yes"/>
<layer number="41" name="tRestrict" color="4" fill="10" visible="yes" active="yes"/>
<layer number="42" name="bRestrict" color="1" fill="10" visible="yes" active="yes"/>
<layer number="43" name="vRestrict" color="2" fill="10" visible="yes" active="yes"/>
<layer number="44" name="Drills" color="7" fill="1" visible="no" active="yes"/>
<layer number="45" name="Holes" color="7" fill="1" visible="no" active="yes"/>
<layer number="46" name="Milling" color="3" fill="1" visible="no" active="yes"/>
<layer number="47" name="Measures" color="7" fill="1" visible="no" active="yes"/>
<layer number="48" name="Document" color="7" fill="1" visible="yes" active="yes"/>
<layer number="49" name="Reference" color="7" fill="1" visible="yes" active="yes"/>
<layer number="50" name="dxf" color="7" fill="1" visible="no" active="no"/>
<layer number="51" name="tDocu" color="7" fill="1" visible="yes" active="yes"/>
<layer number="52" name="bDocu" color="7" fill="1" visible="yes" active="yes"/>
<layer number="53" name="tGND_GNDA" color="7" fill="9" visible="no" active="no"/>
<layer number="54" name="bGND_GNDA" color="1" fill="9" visible="no" active="no"/>
<layer number="56" name="wert" color="7" fill="1" visible="no" active="no"/>
<layer number="57" name="tCAD" color="7" fill="1" visible="no" active="no"/>
<layer number="90" name="Modules" color="5" fill="1" visible="yes" active="yes"/>
<layer number="91" name="Nets" color="2" fill="1" visible="yes" active="yes"/>
<layer number="92" name="Busses" color="1" fill="1" visible="yes" active="yes"/>
<layer number="93" name="Pins" color="2" fill="1" visible="yes" active="yes"/>
<layer number="94" name="Symbols" color="4" fill="1" visible="yes" active="yes"/>
<layer number="95" name="Names" color="7" fill="1" visible="yes" active="yes"/>
<layer number="96" name="Values" color="7" fill="1" visible="yes" active="yes"/>
<layer number="97" name="Info" color="7" fill="1" visible="yes" active="yes"/>
<layer number="98" name="Guide" color="6" fill="1" visible="yes" active="yes"/>
<layer number="99" name="SpiceOrder" color="7" fill="1" visible="yes" active="yes"/>
<layer number="100" name="Muster" color="7" fill="1" visible="no" active="no"/>
<layer number="101" name="Patch_Top" color="12" fill="4" visible="no" active="no"/>
<layer number="102" name="Vscore" color="7" fill="1" visible="no" active="no"/>
<layer number="103" name="tMap" color="7" fill="1" visible="no" active="no"/>
<layer number="104" name="Name" color="7" fill="1" visible="no" active="no"/>
<layer number="105" name="tPlate" color="7" fill="1" visible="no" active="no"/>
<layer number="106" name="bPlate" color="7" fill="1" visible="no" active="no"/>
<layer number="107" name="Crop" color="7" fill="1" visible="no" active="no"/>
<layer number="108" name="fp8" color="7" fill="1" visible="yes" active="yes"/>
<layer number="109" name="fp9" color="7" fill="1" visible="yes" active="yes"/>
<layer number="110" name="110" color="7" fill="1" visible="yes" active="yes"/>
<layer number="111" name="111" color="7" fill="1" visible="yes" active="yes"/>
<layer number="112" name="tSilk" color="7" fill="1" visible="yes" active="yes"/>
<layer number="113" name="IDFDebug" color="7" fill="1" visible="yes" active="yes"/>
<layer number="114" name="FRNTMAAT1" color="7" fill="1" visible="no" active="no"/>
<layer number="115" name="FRNTMAAT2" color="7" fill="1" visible="no" active="no"/>
<layer number="116" name="Patch_BOT" color="9" fill="4" visible="no" active="no"/>
<layer number="117" name="BACKMAAT1" color="7" fill="1" visible="no" active="no"/>
<layer number="118" name="Rect_Pads" color="7" fill="1" visible="yes" active="yes"/>
<layer number="119" name="KAP_TEKEN" color="7" fill="1" visible="no" active="no"/>
<layer number="120" name="KAP_MAAT1" color="7" fill="1" visible="no" active="no"/>
<layer number="121" name="_tsilk" color="7" fill="1" visible="no" active="no"/>
<layer number="122" name="_bsilk" color="7" fill="1" visible="no" active="no"/>
<layer number="123" name="tTestmark" color="7" fill="1" visible="yes" active="yes"/>
<layer number="124" name="bTestmark" color="7" fill="1" visible="yes" active="yes"/>
<layer number="125" name="_tNames" color="7" fill="1" visible="yes" active="yes"/>
<layer number="126" name="_bNames" color="7" fill="1" visible="yes" active="yes"/>
<layer number="127" name="_tValues" color="7" fill="1" visible="yes" active="yes"/>
<layer number="128" name="_bValues" color="7" fill="1" visible="yes" active="yes"/>
<layer number="130" name="SMDSTROOK" color="7" fill="1" visible="no" active="no"/>
<layer number="131" name="tAdjust" color="7" fill="1" visible="yes" active="yes"/>
<layer number="132" name="bAdjust" color="7" fill="1" visible="yes" active="yes"/>
<layer number="144" name="DrillLegend" color="7" fill="1" visible="no" active="no"/>
<layer number="150" name="Notes" color="7" fill="1" visible="yes" active="yes"/>
<layer number="151" name="HeatSink" color="14" fill="1" visible="no" active="no"/>
<layer number="152" name="_bDocu" color="7" fill="1" visible="yes" active="yes"/>
<layer number="153" name="FabDoc1" color="6" fill="1" visible="no" active="no"/>
<layer number="154" name="FabDoc2" color="2" fill="1" visible="no" active="no"/>
<layer number="155" name="FabDoc3" color="7" fill="15" visible="no" active="no"/>
<layer number="199" name="Contour" color="7" fill="1" visible="yes" active="yes"/>
<layer number="200" name="200bmp" color="1" fill="10" visible="no" active="no"/>
<layer number="201" name="201bmp" color="2" fill="1" visible="no" active="no"/>
<layer number="202" name="202bmp" color="3" fill="1" visible="no" active="no"/>
<layer number="203" name="203bmp" color="4" fill="10" visible="no" active="no"/>
<layer number="204" name="204bmp" color="5" fill="10" visible="no" active="no"/>
<layer number="205" name="205bmp" color="6" fill="10" visible="no" active="no"/>
<layer number="206" name="206bmp" color="7" fill="10" visible="no" active="no"/>
<layer number="207" name="207bmp" color="15" fill="10" visible="no" active="no"/>
<layer number="208" name="208bmp" color="9" fill="10" visible="no" active="no"/>
<layer number="209" name="209bmp" color="7" fill="1" visible="no" active="no"/>
<layer number="210" name="210bmp" color="7" fill="1" visible="no" active="no"/>
<layer number="211" name="211bmp" color="7" fill="1" visible="no" active="no"/>
<layer number="212" name="212bmp" color="7" fill="1" visible="no" active="no"/>
<layer number="213" name="213bmp" color="7" fill="1" visible="no" active="no"/>
<layer number="214" name="214bmp" color="7" fill="1" visible="no" active="no"/>
<layer number="215" name="215bmp" color="7" fill="1" visible="no" active="no"/>
<layer number="216" name="216bmp" color="7" fill="1" visible="no" active="no"/>
<layer number="217" name="217bmp" color="18" fill="1" visible="no" active="no"/>
<layer number="218" name="218bmp" color="19" fill="1" visible="no" active="no"/>
<layer number="219" name="219bmp" color="20" fill="1" visible="no" active="no"/>
<layer number="220" name="220bmp" color="21" fill="1" visible="no" active="no"/>
<layer number="221" name="221bmp" color="22" fill="1" visible="no" active="no"/>
<layer number="222" name="222bmp" color="23" fill="1" visible="no" active="no"/>
<layer number="223" name="223bmp" color="24" fill="1" visible="no" active="no"/>
<layer number="224" name="224bmp" color="25" fill="1" visible="no" active="no"/>
<layer number="225" name="225bmp" color="7" fill="1" visible="yes" active="yes"/>
<layer number="226" name="226bmp" color="7" fill="1" visible="yes" active="yes"/>
<layer number="227" name="227bmp" color="7" fill="1" visible="yes" active="yes"/>
<layer number="228" name="228bmp" color="7" fill="1" visible="yes" active="yes"/>
<layer number="230" name="230bmp" color="7" fill="1" visible="yes" active="yes"/>
<layer number="231" name="Eagle3D_PG1" color="7" fill="1" visible="no" active="no"/>
<layer number="232" name="Eagle3D_PG2" color="7" fill="1" visible="no" active="no"/>
<layer number="233" name="Eagle3D_PG3" color="7" fill="1" visible="no" active="no"/>
<layer number="248" name="Housing" color="7" fill="1" visible="yes" active="yes"/>
<layer number="249" name="Edge" color="7" fill="1" visible="yes" active="yes"/>
<layer number="250" name="Descript" color="3" fill="1" visible="no" active="no"/>
<layer number="251" name="SMDround" color="12" fill="11" visible="no" active="no"/>
<layer number="254" name="OrgLBR" color="13" fill="1" visible="no" active="no"/>
<layer number="255" name="Accent" color="7" fill="1" visible="no" active="no"/>
</layers>
<library>
<packages>
<package name="R2512">
<description>2512</description>
<wire x1="-4.445" y1="1.905" x2="4.445" y2="1.905" width="0.127" layer="21"/>
<wire x1="4.445" y1="1.905" x2="4.445" y2="-1.905" width="0.127" layer="21"/>
<wire x1="4.445" y1="-1.905" x2="-4.445" y2="-1.905" width="0.127" layer="21"/>
<wire x1="-4.445" y1="-1.905" x2="-4.445" y2="1.905" width="0.127" layer="21"/>
<smd name="1" x="-3.175" y="0" dx="3.302" dy="2.032" layer="1" rot="R90"/>
<smd name="2" x="3.175" y="0" dx="3.302" dy="2.032" layer="1" rot="R90"/>
<text x="-2.54" y="2.159" size="0.889" layer="25" font="vector" ratio="11">&gt;NAME</text>
<text x="-3.81" y="-3.048" size="0.889" layer="27" ratio="11">&gt;VALUE</text>
<text x="-1.778" y="-0.254" size="0.8128" layer="33" font="vector" ratio="10">&gt;NAME</text>
</package>
<package name="R1206">
<wire x1="-2.159" y1="1.016" x2="2.159" y2="1.016" width="0.127" layer="21"/>
<wire x1="2.159" y1="1.016" x2="2.159" y2="-1.016" width="0.127" layer="21"/>
<wire x1="2.159" y1="-1.016" x2="-2.159" y2="-1.016" width="0.127" layer="21"/>
<wire x1="-2.159" y1="-1.016" x2="-2.159" y2="1.016" width="0.127" layer="21"/>
<smd name="1" x="-1.27" y="0" dx="1.27" dy="1.524" layer="1"/>
<smd name="2" x="1.27" y="0" dx="1.27" dy="1.524" layer="1"/>
<text x="-1.905" y="1.27" size="0.889" layer="25" font="vector" ratio="11">&gt;NAME</text>
<text x="-1.905" y="-2.159" size="0.889" layer="27" font="vector" ratio="11">&gt;VALUE</text>
<rectangle x1="-2.032" y1="-0.889" x2="2.032" y2="0.889" layer="39"/>
</package>
<package name="R0805">
<wire x1="0.889" y1="-1.651" x2="-0.889" y2="-1.651" width="0.127" layer="21"/>
<wire x1="-0.889" y1="-1.651" x2="-0.889" y2="1.651" width="0.127" layer="21"/>
<wire x1="-0.889" y1="1.651" x2="0.889" y2="1.651" width="0.127" layer="21"/>
<wire x1="0.889" y1="1.651" x2="0.889" y2="-1.651" width="0.127" layer="21"/>
<smd name="1" x="0" y="0.889" dx="1.016" dy="1.397" layer="1" roundness="25" rot="R270"/>
<smd name="2" x="0" y="-0.889" dx="1.016" dy="1.397" layer="1" roundness="25" rot="R270"/>
<text x="1.016" y="1.905" size="0.889" layer="25" font="vector" ratio="11" rot="R270">&gt;NAME</text>
<text x="-1.905" y="1.905" size="0.889" layer="27" ratio="11" rot="R270">&gt;VALUE</text>
</package>
<package name="R0603">
<wire x1="0.635" y1="1.397" x2="0.635" y2="-1.397" width="0.127" layer="21"/>
<wire x1="0.635" y1="-1.397" x2="-0.635" y2="-1.397" width="0.127" layer="21"/>
<wire x1="-0.635" y1="-1.397" x2="-0.635" y2="1.397" width="0.127" layer="21"/>
<wire x1="-0.635" y1="1.397" x2="0.635" y2="1.397" width="0.127" layer="21"/>
<smd name="1" x="0" y="0.762" dx="0.889" dy="0.889" layer="1" roundness="25" rot="R270"/>
<smd name="2" x="0" y="-0.762" dx="0.889" dy="0.889" layer="1" roundness="25" rot="R270"/>
<text x="-1.016" y="-1.905" size="0.889" layer="25" ratio="11" rot="R90">&gt;NAME</text>
<text x="1.905" y="-1.27" size="0.635" layer="27" ratio="10" rot="R90">&gt;VALUE</text>
</package>
<package name="R0402">
<wire x1="-0.4445" y1="0.762" x2="-0.3175" y2="0.889" width="0.0762" layer="21" curve="-90"/>
<wire x1="-0.3175" y1="0.889" x2="0.3175" y2="0.889" width="0.0762" layer="21"/>
<wire x1="0.3175" y1="0.889" x2="0.4445" y2="0.762" width="0.0762" layer="21" curve="-90"/>
<wire x1="0.4445" y1="0.762" x2="0.4445" y2="-0.762" width="0.0762" layer="21"/>
<wire x1="0.4445" y1="-0.762" x2="0.3175" y2="-0.889" width="0.0762" layer="21" curve="-90"/>
<wire x1="0.3175" y1="-0.889" x2="-0.3175" y2="-0.889" width="0.0762" layer="21"/>
<wire x1="-0.3175" y1="-0.889" x2="-0.4445" y2="-0.762" width="0.0762" layer="21" curve="-90"/>
<wire x1="-0.4445" y1="-0.762" x2="-0.4445" y2="0.762" width="0.0762" layer="21"/>
<smd name="1" x="0" y="0.4445" dx="0.635" dy="0.635" layer="1" roundness="50" rot="R270"/>
<smd name="2" x="0" y="-0.4445" dx="0.635" dy="0.635" layer="1" roundness="50" rot="R270"/>
<text x="0.635" y="1.27" size="0.889" layer="25" ratio="11" rot="R270">&gt;NAME</text>
<text x="-1.524" y="1.27" size="0.889" layer="27" font="vector" ratio="11" rot="R270">&gt;VALUE</text>
</package>
</packages>
<symbols>
<symbol name="RES">
<wire x1="-2.54" y1="0.508" x2="0" y2="0.508" width="0.254" layer="94"/>
<wire x1="0" y1="0.508" x2="0" y2="-0.508" width="0.254" layer="94"/>
<wire x1="0" y1="-0.508" x2="-2.54" y2="-0.508" width="0.254" layer="94"/>
<wire x1="-2.54" y1="-0.508" x2="-2.54" y2="0.508" width="0.254" layer="94"/>
<text x="-5.08" y="1.27" size="1.27" layer="95" ratio="10">&gt;NAME</text>
<text x="-5.08" y="-2.54" size="1.27" layer="96" ratio="10">&gt;VALUE</text>
<pin name="1" x="-5.08" y="0" visible="off" length="short" direction="pas" swaplevel="1"/>
<pin name="2" x="2.54" y="0" visible="off" length="short" direction="pas" swaplevel="1" rot="R180"/>
</symbol>
</symbols>
<devicesets>
<deviceset name="RES" prefix="R" uservalue="yes">
<description>2512 SMD resistor</description>
<gates>
<gate name="G$1" symbol="RES" x="0" y="0"/>
</gates>
<devices>
<device name="_R2512" package="R2512">
<connects>
<connect gate="G$1" pin="1" pad="1"/>
<connect gate="G$1" pin="2" pad="2"/>
</connects>
<technologies>
<technology name="_R100">
<attribute name="MPN" value="WSL2512R1000FEA" constant="no"/>
<attribute name="OC_MOUSER" value="71-WSL2512R1000FEA
" constant="no"/>
<attribute name="OC_RS" value="683-6599" constant="no"/>
<attribute name="OC_TME" value="WSL2512R1000FEA" constant="no"/>
<attribute name="SUPPLIER" value="VISHAY" constant="no"/>
<attribute name="TEMP" value="-60 to 170" constant="no"/>
<attribute name="VALUE" value="0.1R 1%" constant="no"/>
</technology>
</technologies>
</device>
<device name="R1206" package="R1206">
<connects>
<connect gate="G$1" pin="1" pad="1"/>
<connect gate="G$1" pin="2" pad="2"/>
</connects>
<technologies>
<technology name=""/>
</technologies>
</device>
<device name="R0402" package="R0402">
<connects>
<connect gate="G$1" pin="1" pad="1"/>
<connect gate="G$1" pin="2" pad="2"/>
</connects>
<technologies>
<technology name=""/>
</technologies>
</device>
<device name="R0805" package="R0805">
<connects>
<connect gate="G$1" pin="1" pad="1"/>
<connect gate="G$1" pin="2" pad="2"/>
</connects>
<technologies>
<technology name=""/>
</technologies>
</device>
<device name="R0603" package="R0603">
<connects>
<connect gate="G$1" pin="1" pad="1"/>
<connect gate="G$1" pin="2" pad="2"/>
</connects>
<technologies>
<technology name=""/>
</technologies>
</device>
</devices>
</deviceset>
</devicesets>
</library>
</drawing>
</eagle>
